STAT 413/613: HW on List Columns and COVID19
…
8 Add Population Data to df_all

Use a dplyr join to add the data from df_pop to df_all to create df_allp

This means there will be two columns with population data:

Population for US Counties

PopTotal for the country level

df_all %>%
  inner_join(df_pop, by = c("Country_Region" = "Location")) -> df_allp
df_allp

## # A tibble: 3,375,476 x 17
##    case_types       Province_State Country_Region   Lat  Long Population County
##    <fct>            <chr>          <chr>          <dbl> <dbl>      <dbl> <chr> 
##  1 confirmed_global <NA>           Afghanistan     33.9  67.7          1 1     
##  2 confirmed_global <NA>           Afghanistan     33.9  67.7          1 1     
##  3 confirmed_global <NA>           Afghanistan     33.9  67.7          1 1     
##  4 confirmed_global <NA>           Afghanistan     33.9  67.7          1 1     
##  5 confirmed_global <NA>           Afghanistan     33.9  67.7          1 1     
##  6 confirmed_global <NA>           Afghanistan     33.9  67.7          1 1     
##  7 confirmed_global <NA>           Afghanistan     33.9  67.7          1 1     
##  8 confirmed_global <NA>           Afghanistan     33.9  67.7          1 1     
##  9 confirmed_global <NA>           Afghanistan     33.9  67.7          1 1     
## 10 confirmed_global <NA>           Afghanistan     33.9  67.7          1 1     
## #  with 3,375,466 more rows, and 10 more variables: Country_State <chr>,
## #   Date <date>, cases <dbl>, Continent <chr>, LocID <dbl>, PopTotal <dbl>,
## #   PopDensity <dbl>, percen_world_pop <dbl>, rank_p <dbl>, rank_d <dbl>
…
